{
  "control": {
    "port": 8886,
    "wsPort": 8889
  },
  "proxies": [
    {
      "port": 8885,
      "id": "config-service",
      "logLevel": "standard",
      "target": {
        "baseUrl": "https://graphql-config-service.staging.icanbwell.com",
        "headers": [
          { "header": "origin", "value": "http://localhost:9000" },
          { "header": "referrer", "value": "http://localhost:9000" }
        ]
      }
    },
    {
      "port": 8887,
      "id": "platform",
      "logLevel": "basic",
      "target": {
        "baseUrl": "https://platform-api.staging.icanbwell.com/",
        "headers": [
          { "header": "origin", "value": "http://localhost:9000" },
          { "header": "referrer", "value": "http://localhost:9000" },
          { "header": "App-Portal", "value": "bwell" },
          { "header": "Portal", "value": "bwell" }
        ]
      }
    },
    {
      "port": 8884,
      "id": "provider",
      "logLevel": "standard",
      "target": {
        "baseUrl": "https://provider-search.staging.icanbwell.com",
        "headers": [
          { "header": "origin", "value": "http://localhost:9000" },
          { "header": "referrer", "value": "http://localhost:9000" }
        ]
      }
    },
    {
      "port": 8882,
      "id": "auth",
      "logLevel": "standard",
      "target": {
        "baseUrl": "https://auth-service.staging.icanbwell.com",
        "headers": [
          { "header": "origin", "value": "http://localhost:9000" },
          { "header": "referrer", "value": "http://localhost:9000" }
        ]
      }
    },
    {
      "port": 8883,
      "id": "healthData",
      "logLevel": "standard",
      "target": {
        "baseUrl": "https://access-to-health-data.staging-ue1.icanbwell.com",
        "headers": [
          { "header": "origin", "value": "https://portal.staging.icanbwell.com" },
          { "header": "referrer", "value": "https://portal.staging.icanbwell.com" },
          { "header": "app-portal", "value": "bwell" },
          { "header": "portal", "value": "bwell" }
        ]
      }
    },
    {
      "port": 8881,
      "id": "mastercard",
      "logLevel": "verbose",
      "target": {
        "baseUrl": "https://6738-74-192-8-170.ngrok.io",
        "headers": []
      }
    }
  ]
}
